{
    "nextId": 17,
    "items": [
        {
            "id": 2,
            "firstName": "Matthew",
            "lastName": "Leonard",
            "dataOfBirth": "1999-01-14T00:00:00.000Z",
            "photoUrl": "/media/teacher1.jpeg",
            "email": "f9jxjd14@gmail.com",
            "couplesPerWeek": 15,
            "phone": "24356246878"
        },
        {
            "id": 3,
            "firstName": "Julia",
            "lastName": "Booth",
            "dataOfBirth": "1998-12-27T00:00:00.000Z",
            "photoUrl": "/media/teacher2.png",
            "email": "yughfjbn",
            "couplesPerWeek": 8,
            "phone": "253908098"
        },
        {
            "id": 4,
            "firstName": "Shona",
            "lastName": "Bradley",
            "dataOfBirth": "1999-05-20T00:00:00.000Z",
            "photoUrl": "/media/teacher3.jpg",
            "email": "xl9bc5@gmail.com",
            "couplesPerWeek": 9,
            "phone": "67781341123"
        },
        {
            "id": 5,
            "firstName": "Herbert",
            "lastName": "Harrington",
            "dataOfBirth": "1995-07-23T00:00:00.000Z",
            "photoUrl": "/media/teacher4.jpg",
            "email": "5ybwi@mail.ru",
            "couplesPerWeek": 20,
            "phone": "12542109003"
        },
        {
            "id": 6,
            "firstName": "Leslie",
            "lastName": "Kennedy",
            "dataOfBirth": "1997-08-24T00:00:00.000Z",
            "photoUrl": "/media/teacher5.gif",
            "email": "copaa6@gmail.com",
            "couplesPerWeek": 10,
            "phone": "19753223"
        },
        {
            "id": 7,
            "firstName": "Caroline",
            "lastName": "Robinson",
            "dataOfBirth": "1997-10-16T00:00:00.000Z",
            "photoUrl": "/media/teacher6.jpg",
            "email": "p24a@mail.ru",
            "couplesPerWeek": 17,
            "phone": "12097583"
        },
        {
            "id": 8,
            "firstName": "Abigail",
            "lastName": "Foster",
            "dataOfBirth": "1990-11-27T00:00:00.000Z",
            "photoUrl": "/media/teacher7.jpeg",
            "email": "n4zc9kz@yandex.ru",
            "couplesPerWeek": 21,
            "phone": "087554217"
        },
        {
            "id": 9,
            "firstName": "Betty",
            "lastName": "Barker",
            "dataOfBirth": "1991-03-17T00:00:00.000Z",
            "photoUrl": "/media/teacher8.jpg",
            "email": "kc29hc0e@yandex.ru",
            "couplesPerWeek": 23,
            "phone": "768789123"
        },
        {
            "id": 10,
            "firstName": "Mary",
            "lastName": "Howard",
            "dataOfBirth": "1993-11-06T00:00:00.000Z",
            "photoUrl": "/media/teacher9.jpg",
            "email": "ahbg@yandex.ru",
            "couplesPerWeek": 10,
            "phone": "1766878723"
        },
        {
            "id": 11,
            "firstName": "Anna",
            "lastName": "Barker",
            "dataOfBirth": "2033-12-31T22:00:00.000Z",
            "photoUrl": "/media/teacher10.jpg",
            "email": "frgvg@gmail.com",
            "couplesPerWeek": 7,
            "phone": "654747657"
        },
        {
            "id": 12,
            "firstName": "Qeen",
            "lastName": "Decim",
            "dataOfBirth": "2020-12-01",
            "photoUrl": "/media/teacher10.jpg",
            "email": "vgdgbvtb4@gmail.com",
            "couplesPerWeek": 4,
            "phone": "342876346754"
        },
        {
            "id": 15,
            "firstName": "Qeen",
            "lastName": "Decim",
            "dataOfBirth": "2000-01-14",
            "photoUrl": "/media/teacher4.jpg",
            "email": "vgdgbvtb4@gmail.com",
            "couplesPerWeek": 4,
            "phone": "0687046335"
        }
    ]
}