{
    "nextId": 12,
    "items": [
        {
            "id": 1,
            "firstName": "Thomas",
            "lastName": "Clarke",
            "dataOfBirth": "1988-06-19T00:00:00.000Z",
            "photoUrl": "URL",
            "email": "oxxv@yandex.ru",
            "couplesPerWeek": 7,
            "phone": "687678754446"
        },
        {
            "id": 2,
            "firstName": "Matthew",
            "lastName": "Leonard",
            "dataOfBirth": "1999-01-14T00:00:00.000Z",
            "photoUrl": "URL",
            "email": "f9jxjd14@gmail.com",
            "couplesPerWeek": 15,
            "phone": "24356246878"
        },
        {
            "id": 3,
            "firstName": "Julia",
            "lastName": "Booth",
            "dataOfBirth": "1998-12-27T00:00:00.000Z",
            "photoUrl": "URL",
            "email": "yughfjbn",
            "couplesPerWeek": 8,
            "phone": "253908098"
        },
        {
            "id": 4,
            "firstName": "Shona",
            "lastName": "Bradley",
            "dataOfBirth": "1999-05-20T00:00:00.000Z",
            "photoUrl": "URL",
            "email": "xl9bc5@gmail.com",
            "couplesPerWeek": 9,
            "phone": "67781341123"
        },
        {
            "id": 5,
            "firstName": "Herbert",
            "lastName": "Harrington",
            "dataOfBirth": "1995-07-23T00:00:00.000Z",
            "photoUrl": "URL",
            "email": "5ybwi@mail.ru",
            "couplesPerWeek": 20,
            "phone": "12542109003"
        },
        {
            "id": 6,
            "firstName": "Leslie",
            "lastName": "Kennedy",
            "dataOfBirth": "1997-08-24T00:00:00.000Z",
            "photoUrl": "URL",
            "email": "copaa6@gmail.com",
            "couplesPerWeek": 10,
            "phone": "19753223"
        },
        {
            "id": 7,
            "firstName": "Caroline",
            "lastName": "Robinson",
            "dataOfBirth": "1997-10-16T00:00:00.000Z",
            "photoUrl": "URL",
            "email": "p24a@mail.ru",
            "couplesPerWeek": 17,
            "phone": "12097583"
        },
        {
            "id": 8,
            "firstName": "Abigail",
            "lastName": "Foster",
            "dataOfBirth": "1990-11-27T00:00:00.000Z",
            "photoUrl": "URL",
            "email": "n4zc9kz@yandex.ru",
            "couplesPerWeek": 21,
            "phone": "087554217"
        },
        {
            "id": 9,
            "firstName": "Betty",
            "lastName": "Barker",
            "dataOfBirth": "1991-03-17T00:00:00.000Z",
            "photoUrl": "URL",
            "email": "kc29hc0e@yandex.ru",
            "couplesPerWeek": 23,
            "phone": "768789123"
        },
        {
            "id": 10,
            "firstName": "Mary",
            "lastName": "Howard",
            "dataOfBirth": "1993-11-06T00:00:00.000Z",
            "photoUrl": "URL",
            "email": "ahbg@yandex.ru",
            "couplesPerWeek": 10,
            "phone": "1766878723"
        },
        {
            "id": 11,
            "firstName": null,
            "lastName": "dfhthbd",
            "dataOfBirth": "2002-03-02T22:00:00.000Z",
            "photoUrl": "gredbhztsdf",
            "email": "gfbhrsg",
            "couplesPerWeek": 4,
            "phone": "3425432"
        }
    ]
}