
{
    "nextId": 4,
    "items":[
        {
            "id": 1,
            "login": "admin",
            "fullname": "Admin Admin",
            "role": 1,
            "registeredAt": "2020-01-03T00:00:00.000Z",
            "avaUrl": "thereURL",
            "isEnebled": true
        },
        {
            "id": 2,
            "login": "testUser",
            "fullname": "Test User#1",
            "role": 0,
            "registeredAt": "2020-12-03T00:00:00.000Z",
            "avaUrl": "thereURL",
            "isEnebled": true
        },
        {
            "id": 3,
            "login": "testUser2",
            "fullname": "Test User#2",
            "role": 0,
            "registeredAt": "2021-12-03T00:00:00.000Z",
            "avaUrl": "thereURL",
            "isEnebled": true
        }
    ]
}